\boolfalse {citerequest}\boolfalse {citetracker}\boolfalse {pagetracker}\boolfalse {backtracker}\relax 
\defcounter {refsection}{0}\relax 
\select@language {english}
\addvspace {10\p@ }
\addvspace {10\p@ }
\addvspace {10\p@ }
\addvspace {10\p@ }
\addvspace {10\p@ }
\addvspace {10\p@ }
\addvspace {10\p@ }
\addvspace {10\p@ }
\addvspace {10\p@ }
\addvspace {10\p@ }
\addvspace {10\p@ }
\addvspace {10\p@ }
\addvspace {10\p@ }
\contentsline {table}{\numberline {13.1}{\ignorespaces M1957 dataset}}{240}{table.caption.212}
\contentsline {table}{\numberline {13.2}{\ignorespaces M2321 dataset}}{240}{table.caption.213}
\contentsline {table}{\numberline {13.3}{\ignorespaces ChIP-seq assays}}{241}{table.caption.215}
\contentsline {table}{\numberline {13.4}{\ignorespaces ATAC-seq assays}}{241}{table.caption.216}
\contentsline {table}{\numberline {13.5}{\ignorespaces The genomes used}}{241}{table.caption.218}
\contentsline {table}{\numberline {13.6}{\ignorespaces RNA for NACC - Amphioxus}}{242}{table.caption.220}
\contentsline {table}{\numberline {13.7}{\ignorespaces RNA for NACC - Zebrafish}}{243}{table.caption.221}
\contentsline {table}{\numberline {13.8}{\ignorespaces RNA for NACC - Mouse}}{244}{table.caption.222}
\contentsline {table}{\numberline {13.9}{\ignorespaces RNA for NACC - Human}}{245}{table.caption.223}
